<svg xmlns="http://www.w3.org/2000/svg" width="17" height="17" viewBox="0 0 17 17">
    <g fill="#4A4A4A" fill-rule="nonzero">
        <path d="M15.337 0H2.772c-.917 0-1.663.746-1.663 1.663v1.294H.554a.554.554 0 1 0 0 1.108h.555v2.218H.554a.554.554 0 1 0 0 1.108h.555V9.61H.554a.554.554 0 1 0 0 1.108h.555v2.218H.554a.554.554 0 1 0 0 1.108h.555v1.294c0 .917.746 1.663 1.663 1.663h12.565c.917 0 1.663-.746 1.663-1.663V1.663C17 .746 16.254 0 15.337 0zM4.435 15.891H2.772a.555.555 0 0 1-.555-.554v-1.294h.555a.554.554 0 0 0 0-1.108h-.555v-2.218h.555a.554.554 0 0 0 0-1.108h-.555V7.39h.555a.554.554 0 0 0 0-1.108h-.555V4.065h.555a.554.554 0 0 0 0-1.109h-.555V1.663c0-.306.25-.554.555-.554h1.663V15.89zm11.456-.554a.555.555 0 0 1-.554.554H5.543V1.11h9.794c.306 0 .554.248.554.554v13.674z"/>
        <path d="M14.162 7.427a2.235 2.235 0 0 0-1.684-.745c-.696 0-1.302.308-1.76.89-.459-.582-1.065-.89-1.761-.89-.654 0-1.252.265-1.684.745a2.53 2.53 0 0 0-.632 1.7c0 1.388 1.057 2.245 2.52 3.43.36.293.768.624 1.196.99a.553.553 0 0 0 .721 0c.428-.366.836-.697 1.196-.99 1.463-1.185 2.52-2.042 2.52-3.43a2.53 2.53 0 0 0-.632-1.7zm-2.586 4.27c-.264.213-.553.448-.859.703-.305-.255-.594-.49-.858-.704-1.424-1.154-2.11-1.746-2.11-2.569 0-.647.424-1.336 1.208-1.336.891 0 1.212 1.056 1.227 1.107a.555.555 0 0 0 1.067 0c.013-.045.333-1.107 1.227-1.107.784 0 1.207.689 1.207 1.336 0 .823-.685 1.415-2.109 2.57zM14.228 2.957H7.207a.554.554 0 0 0 0 1.108h7.021a.554.554 0 0 0 0-1.108z"/>
    </g>
</svg>
