<svg xmlns="http://www.w3.org/2000/svg" width="18" height="18" viewBox="0 0 18 18">
    <g fill="#4A4A4A" fill-rule="nonzero">
        <path d="M15.358 2.637A8.935 8.935 0 0 0 8.995 0a8.935 8.935 0 0 0-6.362 2.637C-.655 5.925-.884 11.188 2.066 14.74c-.29.582-.754 1.26-1.443 1.598a.844.844 0 0 0 .244 1.59c.171.027.415.054.712.054.795 0 1.967-.186 3.166-1.05a8.999 8.999 0 0 0 10.617-1.568A8.935 8.935 0 0 0 18 9c0-2.405-.94-4.662-2.64-6.363zm-.727 11.999a7.97 7.97 0 0 1-9.673 1.24.512.512 0 0 0-.624.08.169.169 0 0 0-.042.03c-1.031.8-2.044.967-2.713.967h-.004c.772-.563 1.26-1.4 1.545-2.05a.526.526 0 0 0 .026-.332.534.534 0 0 0-.125-.289C.235 11.135.38 6.34 3.356 3.364c3.109-3.109 8.166-3.109 11.272 0 3.113 3.11 3.113 8.163.003 11.272z"/>
        <circle cx="8.995" cy="9" r="1"/>
        <circle cx="12.253" cy="9" r="1"/>
        <circle cx="5.738" cy="9" r="1"/>
    </g>
</svg>
